Text prediction via N-gram Stupid Back-off models
…
Evaluating next-word predictions

Once we have built our next-word predictor, we may want to directly test its predictions on an independent corpus. For this purpose, sbo offers the function eval_sbo_preds, which performs the following test:

Sample a single \(N\)-gram from each sentence of test corpus.

Predict next words from the \((N-1)\)-gram prefix.

Return all predictions, together with the true word completions.

As a concrete example, we test the text-predictor trained in the previous section over the Twitter (independent) test set.

set.seed(840)
(eval <- eval_sbo_preds(sbo, test))
#> # A tibble: 18,497 x 4
#>    input            true      preds[,1] [,2]  [,3]    correct
#>    <chr>            <chr>     <chr>     <chr> <chr>   <lgl>  
#>  1 "oh hey"         shirtless a         <EOS> i'm     FALSE  
#>  2 " "              how       i         <EOS> thanks  FALSE  
#>  3 " ah"            no        <EOS>     yes   i       FALSE  
#>  4 "he estudiado"   <EOS>     <EOS>     the   it      TRUE   
#>  5 "nada d"         <EOS>     <EOS>     from  project TRUE   
#>  6 "mama no"        esta      <EOS>     more  matter  FALSE  
#>  7 "ya mean"        <EOS>     <EOS>     to    i       TRUE   
#>  8 "tennis the"     scoring   word      same  best    FALSE  
#>  9 " thanks"        for       for       <EOS> to      TRUE   
#> 10 "concert wasn't" over      a         even  that    FALSE  
#> # … with 18,487 more rows
…
